{
    "data":[
      {
        "name": "数据1",
        "id": 1,
        "num": 222
      },
      {
        "name": "数据2",
        "id": 2,
        "num": 322
      },
      {
            "name":"数据3",
            "id":3,
            "num":262
        },
        {
            "name":"数据4",
            "id":3,
            "num":122
        }
    ]
}